Local forecasting with National Syndromic Surveillance Program (NSSP) Data
…
The following code returns county-level data, where geo_value is the FIPS code of the county. Again, the values returned for an individual county are really those of the parent HSA.

pub_covidcast(source = "nssp", signals = "pct_ed_visits_influenza", geo_type = "county", geo_values = "25015", time_type = "week")

Warning: No API key found. You will be limited to non-complex queries and encounter rate
limits if you proceed.
ℹ See `?save_api_key()` for details on obtaining and setting API keys.
This warning is displayed once every 8 hours.

# A tibble: 151 × 15
   geo_value signal    source geo_type time_type time_value direction issue     
   <chr>     <chr>     <chr>  <fct>    <fct>     <date>         <dbl> <date>    
 1 25015     pct_ed_v… nssp   county   week      2022-09-25        NA 2025-08-17
 2 25015     pct_ed_v… nssp   county   week      2022-10-02        NA 2025-08-17
 3 25015     pct_ed_v… nssp   county   week      2022-10-09        NA 2025-08-17
 4 25015     pct_ed_v… nssp   county   week      2022-10-16        NA 2025-08-17
 5 25015     pct_ed_v… nssp   county   week      2022-10-23        NA 2025-08-17
 6 25015     pct_ed_v… nssp   county   week      2022-10-30        NA 2025-08-17
 7 25015     pct_ed_v… nssp   county   week      2022-11-06        NA 2025-08-17
 8 25015     pct_ed_v… nssp   county   week      2022-11-13        NA 2025-08-17
 9 25015     pct_ed_v… nssp   county   week      2022-11-20        NA 2025-08-17
10 25015     pct_ed_v… nssp   county   week      2022-11-27        NA 2025-08-17
# ℹ 141 more rows
# ℹ 7 more variables: lag <dbl>, missing_value <dbl>, missing_stderr <dbl>,
#   missing_sample_size <dbl>, value <dbl>, stderr <dbl>, sample_size <dbl>
…
